<define-tag pagetitle>DLA-3003-1 ruby-nokogiri</define-tag>
<define-tag report_date>2022-05-13</define-tag>
<define-tag secrefs>CVE-2022-24836</define-tag>
<define-tag packages>ruby-nokogiri</define-tag>
<define-tag isvulnerable>yes</define-tag>
<define-tag fixed>yes</define-tag>
<define-tag fixed-section>no</define-tag>

#use wml::debian::security
