<define-tag pagetitle>DSA-4853-1 spip</define-tag>
<define-tag report_date>2021-2-16</define-tag>
<define-tag packages>spip</define-tag>
<define-tag isvulnerable>yes</define-tag>
<define-tag fixed>yes</define-tag>
<define-tag fixed-section>no</define-tag>

#use wml::debian::security



</dl>
