<define-tag pagetitle>DLA-2597-1 velocity-tools</define-tag>
<define-tag report_date>2021-03-17</define-tag>
<define-tag secrefs>CVE-2020-13959</define-tag>
<define-tag packages>velocity-tools</define-tag>
<define-tag isvulnerable>yes</define-tag>
<define-tag fixed>yes</define-tag>
<define-tag fixed-section>no</define-tag>

#use wml::debian::security
