<define-tag pagetitle>DLA-2851-1 libextractor</define-tag>
<define-tag report_date>2021-12-26</define-tag>
<define-tag secrefs>CVE-2019-15531 Bug#935553</define-tag>
<define-tag packages>libextractor</define-tag>
<define-tag isvulnerable>yes</define-tag>
<define-tag fixed>yes</define-tag>
<define-tag fixed-section>no</define-tag>

#use wml::debian::security

