<define-tag pagetitle>DLA-1003-1 unrar-nonfree</define-tag>
<define-tag report_date>2017-6-27</define-tag>
<define-tag secrefs>CVE-2012-6706 Bug##865461</define-tag>
<define-tag packages>unrar-nonfree</define-tag>
<define-tag isvulnerable>yes</define-tag>
<define-tag fixed>yes</define-tag>
<define-tag fixed-section>no</define-tag>

#use wml::debian::security

