<define-tag pagetitle>DLA-2195-1 w3m</define-tag>
<define-tag report_date>2020-4-30</define-tag>
<define-tag secrefs>CVE-2018-6196 CVE-2018-6197</define-tag>
<define-tag packages>w3m</define-tag>
<define-tag isvulnerable>yes</define-tag>
<define-tag fixed>yes</define-tag>
<define-tag fixed-section>no</define-tag>

#use wml::debian::security

