<define-tag pagetitle>DLA-2124-1 php5</define-tag>
<define-tag report_date>2020-2-28</define-tag>
<define-tag secrefs>CVE-2020-7059 CVE-2020-7060</define-tag>
<define-tag packages>php5</define-tag>
<define-tag isvulnerable>yes</define-tag>
<define-tag fixed>yes</define-tag>
<define-tag fixed-section>no</define-tag>

#use wml::debian::security

