<define-tag pagetitle>DLA-1388-1 wireshark</define-tag>
<define-tag report_date>2018-5-28</define-tag>
<define-tag secrefs>CVE-2018-9258 CVE-2018-9260 CVE-2018-9261 CVE-2018-9263 CVE-2018-9268 CVE-2018-9269 CVE-2018-9270 CVE-2018-11358 CVE-2018-11362</define-tag>
<define-tag packages>wireshark</define-tag>
<define-tag isvulnerable>yes</define-tag>
<define-tag fixed>yes</define-tag>
<define-tag fixed-section>no</define-tag>

#use wml::debian::security

