<define-tag pagetitle>DSA-4544-1 unbound</define-tag>
<define-tag report_date>2019-10-16</define-tag>
<define-tag secrefs>CVE-2019-16866 Bug#941692</define-tag>
<define-tag packages>unbound</define-tag>
<define-tag isvulnerable>yes</define-tag>
<define-tag fixed>yes</define-tag>
<define-tag fixed-section>no</define-tag>

#use wml::debian::security



</dl>
