<define-tag pagetitle>DSA-5076-1 h2database</define-tag>
<define-tag report_date>2022-2-15</define-tag>
<define-tag secrefs>CVE-2021-42392 CVE-2022-23221 Bug#1003894</define-tag>
<define-tag packages>h2database</define-tag>
<define-tag isvulnerable>yes</define-tag>
<define-tag fixed>yes</define-tag>
<define-tag fixed-section>no</define-tag>

#use wml::debian::security



</dl>
