<define-tag pagetitle>DSA-5092-1 linux</define-tag>
<define-tag report_date>2022-3-07</define-tag>
<define-tag secrefs>CVE-2021-43976 CVE-2022-0330 CVE-2022-0435 CVE-2022-0516 CVE-2022-0847 CVE-2022-22942 CVE-2022-24448 CVE-2022-24959 CVE-2022-25258 CVE-2022-25375</define-tag>
<define-tag packages>linux</define-tag>
<define-tag isvulnerable>yes</define-tag>
<define-tag fixed>yes</define-tag>
<define-tag fixed-section>no</define-tag>

#use wml::debian::security



</dl>
