<define-tag pagetitle>DLA-1897-1 tiff</define-tag>
<define-tag report_date>2019-8-25</define-tag>
<define-tag secrefs>CVE-2019-14973</define-tag>
<define-tag packages>tiff</define-tag>
<define-tag isvulnerable>yes</define-tag>
<define-tag fixed>yes</define-tag>
<define-tag fixed-section>no</define-tag>

#use wml::debian::security

