<define-tag pagetitle>DLA-1743-1 thunderbird</define-tag>
<define-tag report_date>2019-4-1</define-tag>
<define-tag secrefs>CVE-2018-18506 CVE-2019-9788 CVE-2019-9790 CVE-2019-9791 CVE-2019-9792 CVE-2019-9793 CVE-2019-9795 CVE-2019-9796</define-tag>
<define-tag packages>thunderbird</define-tag>
<define-tag isvulnerable>yes</define-tag>
<define-tag fixed>yes</define-tag>
<define-tag fixed-section>no</define-tag>

#use wml::debian::security

