<define-tag pagetitle>DLA-1647-1 apache2</define-tag>
<define-tag report_date>2019-1-29</define-tag>
<define-tag secrefs>CVE-2018-17199</define-tag>
<define-tag packages>apache2</define-tag>
<define-tag isvulnerable>yes</define-tag>
<define-tag fixed>yes</define-tag>
<define-tag fixed-section>no</define-tag>

#use wml::debian::security

