<define-tag pagetitle>DLA-463-1 ikiwiki</define-tag>
<define-tag report_date>2016-5-9</define-tag>
<define-tag secrefs>CVE-2016-4561</define-tag>
<define-tag packages>ikiwiki</define-tag>
<define-tag isvulnerable>yes</define-tag>
<define-tag fixed>yes</define-tag>
<define-tag fixed-section>no</define-tag>

#use wml::debian::security

